Making a plot
…
* every column is a variable
* every row is an observation

In *wide*-format

* some variables are spread out over multiple columns

*ggplot* requires data in *long* form

---

# Wide-format

```
## # A tibble: 142 x 13
##    country `1952` `1957` `1962` `1967` `1972` `1977` `1982` `1987` `1992`
##    <fct>    <dbl>  <dbl>  <dbl>  <dbl>  <dbl>  <dbl>  <dbl>  <dbl>  <dbl>
##  1 Afghan…   28.8   30.3   32.0   34.0   36.1   38.4   39.9   40.8   41.7
##  2 Albania   55.2   59.3   64.8   66.2   67.7   68.9   70.4   72     71.6
##  3 Algeria   43.1   45.7   48.3   51.4   54.5   58.0   61.4   65.8   67.7
##  4 Angola    30.0   32.0   34     36.0   37.9   39.5   39.9   39.9   40.6
##  5 Argent…   62.5   64.4   65.1   65.6   67.1   68.5   69.9   70.8   71.9
##  6 Austra…   69.1   70.3   70.9   71.1   71.9   73.5   74.7   76.3   77.6
##  7 Austria   66.8   67.5   69.5   70.1   70.6   72.2   73.2   74.9   76.0
##  8 Bahrain   50.9   53.8   56.9   59.9   63.3   65.6   69.1   70.8   72.6
##  9 Bangla…   37.5   39.3   41.2   43.5   45.3   46.9   50.0   52.8   56.0
## 10 Belgium   68     69.2   70.2   70.9   71.4   72.8   73.9   75.4   76.5
## # … with 132 more rows, and 3 more variables: `1997` <dbl>, `2002` <dbl>,
## #   `2007` <dbl>
```

---

# Long-format

```
## # A tibble: 1,704 x 3
##    country      year lifeExp
##    <fct>       <int>   <dbl>
##  1 Afghanistan  1952    28.8
##  2 Afghanistan  1957    30.3
##  3 Afghanistan  1962    32.0
##  4 Afghanistan  1967    34.0
##  5 Afghanistan  1972    36.1
##  6 Afghanistan  1977    38.4
##  7 Afghanistan  1982    39.9
##  8 Afghanistan  1987    40.8
##  9 Afghanistan  1992    41.7
## 10 Afghanistan  1997    41.8
## # … with 1,694 more rows
```
…
.footnote[
<a style="background-color:black;color:white;text-decoration:none;padding:4px 6px;font-family:-apple-system, BlinkMacSystemFont, &quot;San Francisco&quot;, &quot;Helvetica Neue&quot;, Helvetica, Ubuntu, Roboto, Noto, &quot;Segoe UI&quot;, Arial, sans-serif;font-size:12px;font-weight:bold;line-height:1.2;display:inline-block;border-radius:3px" href="https://unsplash.com/@jbuchbinder?utm_medium=referral&amp;utm_campaign=photographer-credit&amp;utm_content=creditBadge" target="_blank" rel="noopener noreferrer" title="Download free do whatever you want high-resolution photos from Jeffrey Buchbinder"><span style="display:inline-block;padding:2px 3px"><svg xmlns="http://www.w3.org/2000/svg" style="height:12px;width:auto;position:relative;vertical-align:middle;top:-2px;fill:white" viewBox="0 0 32 32"><title>unsplash-logo</title><path d="M10 9V0h12v9H10zm12 5h10v18H0V14h10v9h12v-9z"></path></svg></span><span style="display:inline-block;padding:2px 3px">Jeffrey Buchbinder</span></a>
]

---

# gapminder data set

```r
library('gapminder')                    # load package
gapminder                               # print data frame
```

```
## # A tibble: 1,704 x 6
##    country     continent  year lifeExp      pop gdpPercap
##    <fct>       <fct>     <int>   <dbl>    <int>     <dbl>
##  1 Afghanistan Asia       1952    28.8  8425333      779.
##  2 Afghanistan Asia       1957    30.3  9240934      821.
##  3 Afghanistan Asia       1962    32.0 10267083      853.
##  4 Afghanistan Asia       1967    34.0 11537966      836.
##  5 Afghanistan Asia       1972    36.1 13079460      740.
##  6 Afghanistan Asia       1977    38.4 14880372      786.
##  7 Afghanistan Asia       1982    39.9 12881816      978.
##  8 Afghanistan Asia       1987    40.8 13867957      852.
##  9 Afghanistan Asia       1992    41.7 16317921      649.
## 10 Afghanistan Asia       1997    41.8 22227415      635.
## # … with 1,694 more rows
```
…
