Comparing smooths in factor-smooth interactions I
…
Next, load the data set and convert the SiteCode variable to a factor for use in fitting the GAM with gam()

uri <- 'https://gist.githubusercontent.com/gavinsimpson/eb4ff24fa9924a588e6ee60dfae8746f/raw/geochimica-metals.csv'
metals <- read_csv(uri, skip = 1, col_types = c('ciccd'))
metals <- mutate(metals, SiteCode = factor(SiteCode))

This is a subset of the data used in Rose et al. (2012) — the Hg concentrations in the sediments for just three of the lochs are included here in the interests of simplicity. The data set contains 5 variables

metals

# A tibble: 44 x 5
   SiteCode  Date SoilType Region        Hg
     <fctr> <int>    <chr>  <chr>     <dbl>
 1     CHNA  2000     thin     NW  3.843399
 2     CHNA  1990     thin     NW  5.424618
 3     CHNA  1980     thin     NW  8.819730
 4     CHNA  1970     thin     NW 11.417457
 5     CHNA  1960     thin     NW 16.513540
 6     CHNA  1950     thin     NW 16.512047
 7     CHNA  1940     thin     NW 11.188840
 8     CHNA  1930     thin     NW 11.622222
 9     CHNA  1920     thin     NW 13.645853
10     CHNA  1910     thin     NW 11.181711
# ... with 34 more rows
…
