Confidence intervals for GLMs
…
## grad the inverse link function
ilink <- family(mod)$linkinv
## add fit and se.fit on the **link** scale
ndata <- bind_cols(ndata, setNames(as_tibble(predict(mod, ndata, se.fit = TRUE)[1:2]),
                                   c('fit_link','se_link')))
## create the interval and backtransform
ndata <- mutate(ndata,
                fit_resp  = ilink(fit_link),
                right_upr = ilink(fit_link + (2 * se_link)),
                right_lwr = ilink(fit_link - (2 * se_link)))
## show
ndata

# A tibble: 100 x 10
   leafHeight     fit wrong_se wrong_upr wrong_lwr fit_link se_link
        <dbl>   <dbl>    <dbl>     <dbl>     <dbl>    <dbl>   <dbl>
 1       14   0.00341  0.00567    0.0147  -0.00792    -5.68    1.67
 2       14.7 0.00370  0.00605    0.0158  -0.00840    -5.60    1.64
 3       15.4 0.00401  0.00646    0.0169  -0.00891    -5.51    1.62
 4       16.1 0.00435  0.00690    0.0182  -0.00945    -5.43    1.59
 5       16.8 0.00472  0.00737    0.0195  -0.0100     -5.35    1.57
 6       17.5 0.00512  0.00786    0.0208  -0.0106     -5.27    1.54
 7       18.2 0.00555  0.00839    0.0223  -0.0112     -5.19    1.52
 8       18.9 0.00602  0.00895    0.0239  -0.0119     -5.11    1.49
 9       19.7 0.00653  0.00954    0.0256  -0.0125     -5.02    1.47
10       20.4 0.00708  0.0102     0.0274  -0.0133     -4.94    1.45
# ... with 90 more rows, and 3 more variables: fit_resp <dbl>,
#   right_upr <dbl>, right_lwr <dbl>
…
