Plant Physiology Lab
…
The experimental data exist in f19ph.xlsx, an Excel workbook. The example data I’ll use here are in two of the sheets in this workbook. You will need to know what number your sheets are in this file.

First we’ll read in the data for the wild type cultivar using the read_excel() function

col_types <- rep(c('text','numeric'), times = c(3, 9))
wt <- read_excel('f19ph.xlsx', sheet = 2, col_types = col_types)

To avoid reading in incorrect data, we tell read_excel() what types of data to expect in each column of the sheet we read in — there are three text columns, followed by nine columns of numbers.

If there were no errors or messages printed to the screen then the data were loaded into R. Take a look at the data by typing the name of the object (wt) and hitting Return

wt

## # A tibble: 24 x 12
##    treatment cultivar plantid `height:0` `internodes:0` `height:7`
##    <chr>     <chr>    <chr>        <dbl>          <dbl>      <dbl>
##  1 control   wt       1              235              4        525
##  2 control   wt       2              182              3        391
##  3 control   wt       3              253              3        452
##  4 control   wt       4              151              3        350
##  5 control   wt       5              195              3        335
##  6 control   wt       6              187              4        190
##  7 ga10      wt       1              250              4        458
##  8 ga10      wt       2              220              4        345
##  9 ga10      wt       3              180              2        300
## 10 ga10      wt       4              230              4        510
## # … with 14 more rows, and 6 more variables: `internodes:7` <dbl>,
## #   `height:14` <dbl>, `internodes:14` <dbl>, `height:21` <dbl>,
## #   `internodes:21` <dbl>, `freshwt:21` <dbl>
…
names_sep = ':' — the variable name and day information are in the column names separated by :

names_ptypes = list(day = integer()) — we want the created day column to contain integer values not text

wt <- pivot_longer(wt,
                   -(treatment:plantid),
                   names_to = c('variable','day'),
                   names_sep = ':',
                   names_ptypes = list(day = integer()))

Take a look at what we have created

wt

## # A tibble: 216 x 6
##    treatment cultivar plantid variable     day  value
##    <chr>     <chr>    <chr>   <chr>      <int>  <dbl>
##  1 control   wt       1       height         0  235  
##  2 control   wt       1       internodes     0    4  
##  3 control   wt       1       height         7  525  
##  4 control   wt       1       internodes     7    5  
##  5 control   wt       1       height        14  810  
##  6 control   wt       1       internodes    14   10  
##  7 control   wt       1       height        21 1090  
##  8 control   wt       1       internodes    21   14  
##  9 control   wt       1       freshwt       21    7.2
## 10 control   wt       2       height         0  182  
## # … with 206 more rows
…
day — when was it measured?

value — what value did you write down for this measurement?

We have one more data processing step to perform to get the required format for the analysis. We want separate columns for the different types of variable we measured (height, internodes, freshwt). At the moment these are all contained in the single column variable. To get the format we want, we need to pivot from this long format back to a wide format, which we do using the pivot_wider() function.

wt <- pivot_wider(wt, names_from = variable, values_from = value)

As well as the name of the object we want to pivot (wt), we have to tell pivot_wider() which column contains the information for the new column names (the names_from argument), and which column contains the data or values (the values_from argument). Remember that the variable column contains the names of each variable you measured and the value column contains the measurement values.

Look at the result

wt

## # A tibble: 96 x 7
##    treatment cultivar plantid   day height internodes freshwt
##    <chr>     <chr>    <chr>   <int>  <dbl>      <dbl>   <dbl>
##  1 control   wt       1           0    235          4    NA  
##  2 control   wt       1           7    525          5    NA  
##  3 control   wt       1          14    810         10    NA  
##  4 control   wt       1          21   1090         14     7.2
##  5 control   wt       2           0    182          3    NA  
##  6 control   wt       2           7    391          5    NA  
##  7 control   wt       2          14    615          9    NA  
##  8 control   wt       2          21    810         12     3.8
##  9 control   wt       3           0    253          3    NA  
## 10 control   wt       3           7    452          6    NA  
## # … with 86 more rows
…
reading in the data,

pivoting from wide to long format and extracting the variable name and day information from the column headers

pivoting from long to wide format to create a column of data for each of three variables you measured

dwarf <- read_excel('f19ph.xlsx', sheet = 4, col_types = col_types)
dwarf <- pivot_longer(dwarf, -(1:3), names_sep = ':',
                      names_to = c('variable','day'),
                      names_ptypes = list(day = integer()))
dwarf <- pivot_wider(dwarf, names_from = variable, values_from = value)
dwarf

## # A tibble: 96 x 7
##    treatment cultivar plantid   day height internodes freshwt
##    <chr>     <chr>    <chr>   <int>  <dbl>      <dbl>   <dbl>
##  1 control   dwarf    1           0     47          4      NA
##  2 control   dwarf    1           7     92          7      NA
##  3 control   dwarf    1          14     97          7      NA
##  4 control   dwarf    1          21    110          9       2
##  5 control   dwarf    2           0     35          3      NA
##  6 control   dwarf    2           7     64          5      NA
##  7 control   dwarf    2          14     90          5      NA
##  8 control   dwarf    2          21     NA         NA      NA
##  9 control   dwarf    3           0     45          4      NA
## 10 control   dwarf    3           7     67          5      NA
## # … with 86 more rows
…
