…
Recently I've been preparing my [**gratia** package](https://gavinsimpson.github.io/gratia/) for submission to CRAN. During my pre-flight testing I noticed an issue under Windows checking the examples in the package against the reference output I generated on linux. In the latest release of the [**tibble** package](https://tibble.tidyverse.org/), the way tibbles are printed has changed subtly and in a way that leads to cross-platform differences. As I write this, tibbles with more than a set number of rows are printed in a truncated form, showing only the first 10 rows of data. In such cases, a final line is printed with an ellipsis and a note as to how many more rows are in the tibble. It was this ellipsis that was causing the cross-platform issue where differences between the output generated on windows and the reference output were being identified during `R CMD check` on Windows. If this is causing you an issue, here's one way to solve the problem.

The problem is this:

{% highlight r %}
library('tibble')
as_tibble(iris)
{% endhighlight %}



{% highlight text %}
# A tibble: 150 x 5
   Sepal.Length Sepal.Width Petal.Length Petal.Width Species
          <dbl>       <dbl>        <dbl>       <dbl> <fct>  
 1          5.1         3.5          1.4         0.2 setosa 
 2          4.9         3            1.4         0.2 setosa 
 3          4.7         3.2          1.3         0.2 setosa 
 4          4.6         3.1          1.5         0.2 setosa 
 5          5           3.6          1.4         0.2 setosa 
 6          5.4         3.9          1.7         0.4 setosa 
 7          4.6         3.4          1.4         0.3 setosa 
 8          5           3.4          1.5         0.2 setosa 
 9          4.4         2.9          1.4         0.2 setosa 
10          4.9         3.1          1.5         0.1 setosa 
# … with 140 more rows
{% endhighlight %}

Note that little ellipsis on the last line. Yes, those three little dots &mdash; that &hellip; was what was causing all the trouble. Don't get me wrong, I'm all on board when it comes to proper typography, but for something so small, that one &hellip; caused a good deal of hair-pulling as I prepared my package for a clean submission to CRAN!

On Windows you won't see that cute little &hellip;; instead you'll see this


{% highlight r %}
as_tibble(iris)
{% endhighlight %}



{% highlight text %}
# A tibble: 150 x 5
   Sepal.Length Sepal.Width Petal.Length Petal.Width Species
          <dbl>       <dbl>        <dbl>       <dbl> <fct>  
 1          5.1         3.5          1.4         0.2 setosa 
 2          4.9         3            1.4         0.2 setosa 
 3          4.7         3.2          1.3         0.2 setosa 
 4          4.6         3.1          1.5         0.2 setosa 
 5          5           3.6          1.4         0.2 setosa 
 6          5.4         3.9          1.7         0.4 setosa 
 7          4.6         3.4          1.4         0.3 setosa 
 8          5           3.4          1.5         0.2 setosa 
 9          4.4         2.9          1.4         0.2 setosa 
10          4.9         3.1          1.5         0.1 setosa 
# ... with 140 more rows
…
The option you need is `cli.unicode` and it needs to be set to `FALSE`. Here it is in action


{% highlight r %}
as_tibble(iris)
op <- options(cli.unicode = FALSE)
as_tibble(iris)
options(op)
{% endhighlight %}



{% highlight text %}
# A tibble: 150 x 5
   Sepal.Length Sepal.Width Petal.Length Petal.Width Species
          <dbl>       <dbl>        <dbl>       <dbl> <fct>  
 1          5.1         3.5          1.4         0.2 setosa 
 2          4.9         3            1.4         0.2 setosa 
 3          4.7         3.2          1.3         0.2 setosa 
 4          4.6         3.1          1.5         0.2 setosa 
 5          5           3.6          1.4         0.2 setosa 
 6          5.4         3.9          1.7         0.4 setosa 
 7          4.6         3.4          1.4         0.3 setosa 
 8          5           3.4          1.5         0.2 setosa 
 9          4.4         2.9          1.4         0.2 setosa 
10          4.9         3.1          1.5         0.1 setosa 
# … with 140 more rows
# A tibble: 150 x 5
   Sepal.Length Sepal.Width Petal.Length Petal.Width Species
          <dbl>       <dbl>        <dbl>       <dbl> <fct>  
 1          5.1         3.5          1.4         0.2 setosa 
 2          4.9         3            1.4         0.2 setosa 
 3          4.7         3.2          1.3         0.2 setosa 
 4          4.6         3.1          1.5         0.2 setosa 
 5          5           3.6          1.4         0.2 setosa 
 6          5.4         3.9          1.7         0.4 setosa 
 7          4.6         3.4          1.4         0.3 setosa 
 8          5           3.4          1.5         0.2 setosa 
 9          4.4         2.9          1.4         0.2 setosa 
10          4.9         3.1          1.5         0.1 setosa 
# ... with 140 more rows
…
