…
We have to download the data first --- which I do using `curl_download()` from the *curl* package --- because `read_excel()` doesn't currently know how to read from URLs at the moment.

Now we have our plant data within R, stored in a data frame


{% highlight r %}
plant
{% endhighlight %}



{% highlight text %}
# A tibble: 24 x 12
   treatment cultivar plantid `height:0` `internodes:0` `height:7`
   <chr>     <chr>      <dbl>      <dbl>          <dbl>      <dbl>
 1 control   wt             1        235              4        525
 2 control   wt             2        182              3        391
 3 control   wt             3        253              3        452
 4 control   wt             4        151              3        350
 5 control   wt             5        195              3        335
 6 control   wt             6        187              4        190
 7 ga10      wt             1        250              4        458
 8 ga10      wt             2        220              4        345
 9 ga10      wt             3        180              2        300
10 ga10      wt             4        230              4        510
# … with 14 more rows, and 6 more variables: `internodes:7` <dbl>,
#   `height:14` <dbl>, `internodes:14` <dbl>, `height:21` <dbl>,
#   `internodes:21` <dbl>, `freshwt:21` <dbl>
…
So, to get our wide plant data into a longer format we would do this


{% highlight r %}
pivot_longer(plant, -(1:3), names_to = "variable")
{% endhighlight %}



{% highlight text %}
# A tibble: 216 x 5
   treatment cultivar plantid variable       value
   <chr>     <chr>      <dbl> <chr>          <dbl>
 1 control   wt             1 height:0       235  
 2 control   wt             1 internodes:0     4  
 3 control   wt             1 height:7       525  
 4 control   wt             1 internodes:7     5  
 5 control   wt             1 height:14      810  
 6 control   wt             1 internodes:14   10  
 7 control   wt             1 height:21     1090  
 8 control   wt             1 internodes:21   14  
 9 control   wt             1 freshwt:21       7.2
10 control   wt             2 height:0       182  
# … with 206 more rows
…
The `-(1:3)` is short-hand for excluding the first three columns of `plant` from the pivot. Here, we're creating a new variable called (imaginatively!) `variable`. As you can see we now have our data in a much longer representation, with a single column containing all of the observations that this group of students made.

However, we have a bit of a problem: we have the added complication that some of the column names contain actual data that we want to use. While we have a column containing this information --- it is not lost --- the observation day or variable name information is not directly accessible in this format. What we could do is split the strings in this new `variable` column on `":"` and form two new columns from there.

Thankfully, this is such a common operation that `pivot_longer()` (and it's predecessor, `gather()`) can do this for you --- all you have to do is tell `pivot_longer()` what character to split on, and what names you want for the columns that result from splitting the strings up.


{% highlight r %}
pivot_longer(plant, -(1:3), names_sep = ":", names_to = c("variable","day"))
{% endhighlight %}



{% highlight text %}
# A tibble: 216 x 6
   treatment cultivar plantid variable   day    value
   <chr>     <chr>      <dbl> <chr>      <chr>  <dbl>
 1 control   wt             1 height     0      235  
 2 control   wt             1 internodes 0        4  
 3 control   wt             1 height     7      525  
 4 control   wt             1 internodes 7        5  
 5 control   wt             1 height     14     810  
 6 control   wt             1 internodes 14      10  
 7 control   wt             1 height     21    1090  
 8 control   wt             1 internodes 21      14  
 9 control   wt             1 freshwt    21       7.2
10 control   wt             2 height     0      182  
# … with 206 more rows
…
The changes we made above were to specify `names_sep` with the correct separator, and we pass a vector of new column names to `names_to` rather than the single name we provided previously.

Those of you with good eyes may have noticed another problem that we will encounter if we stopped here. The `day` variable that was just created is stored as a character vector. It is likely that we'll want this information stored as a number if we're going to analyze the data. We can do the required conversion within `pivot_longer()` call by specifying what the developers have started calling a *prototype* across many of the *tidyverse* packages. A prototype is an object that has the same properties that you want objects built from that prototype to take. Here we want the `day` variable as a column of integer numbers, so we set the prototype for this vector to `integer()` using the `names_ptypes` argument


{% highlight r %}
plant <- pivot_longer(plant, -(1:3), names_sep = ":", names_to = c("variable","day"),
                      names_ptypes = list(day = integer()))
plant
{% endhighlight %}



{% highlight text %}
# A tibble: 216 x 6
   treatment cultivar plantid variable     day  value
   <chr>     <chr>      <dbl> <chr>      <int>  <dbl>
 1 control   wt             1 height         0  235  
 2 control   wt             1 internodes     0    4  
 3 control   wt             1 height         7  525  
 4 control   wt             1 internodes     7    5  
 5 control   wt             1 height        14  810  
 6 control   wt             1 internodes    14   10  
 7 control   wt             1 height        21 1090  
 8 control   wt             1 internodes    21   14  
 9 control   wt             1 freshwt       21    7.2
10 control   wt             2 height         0  182  
# … with 206 more rows
…
What we want is to create new columns for `height`, `internodes` and `freshwt` and pivot the `value` data out into those columns. As we're adding columns we're making the data wider, so we can use the `pivot_wider()` function to do what we want. Now we need to tell `pivot_wider()`

* where to take the *names* of the new variables that are going to be created **from** --- here that's the `variable` column, and
* where to take the *data* values **from** that are going to be put into these new columns --- here, that's the `value` column


{% highlight r %}
plant <- pivot_wider(plant, names_from = variable, values_from = value)
plant
{% endhighlight %}



{% highlight text %}
# A tibble: 96 x 7
   treatment cultivar plantid   day height internodes freshwt
   <chr>     <chr>      <dbl> <int>  <dbl>      <dbl>   <dbl>
 1 control   wt             1     0    235          4    NA  
 2 control   wt             1     7    525          5    NA  
 3 control   wt             1    14    810         10    NA  
 4 control   wt             1    21   1090         14     7.2
 5 control   wt             2     0    182          3    NA  
 6 control   wt             2     7    391          5    NA  
 7 control   wt             2    14    615          9    NA  
 8 control   wt             2    21    810         12     3.8
 9 control   wt             3     0    253          3    NA  
10 control   wt             3     7    452          6    NA  
# … with 86 more rows
…
We can do those data processing steps quite easily now we have the data imported and arranged nicely the way we want them


{% highlight r %}
plant <- mutate(plant,
                id = paste0(cultivar, "_", treatment, "_", plantid),
                treatment = fct_relevel(treatment, 'control'))
plant
{% endhighlight %}



{% highlight text %}
# A tibble: 96 x 8
   treatment cultivar plantid   day height internodes freshwt id          
   <fct>     <chr>      <dbl> <int>  <dbl>      <dbl>   <dbl> <chr>       
 1 control   wt             1     0    235          4    NA   wt_control_1
 2 control   wt             1     7    525          5    NA   wt_control_1
 3 control   wt             1    14    810         10    NA   wt_control_1
 4 control   wt             1    21   1090         14     7.2 wt_control_1
 5 control   wt             2     0    182          3    NA   wt_control_2
 6 control   wt             2     7    391          5    NA   wt_control_2
 7 control   wt             2    14    615          9    NA   wt_control_2
 8 control   wt             2    21    810         12     3.8 wt_control_2
 9 control   wt             3     0    253          3    NA   wt_control_3
10 control   wt             3     7    452          6    NA   wt_control_3
# … with 86 more rows
…
