…
{% highlight text %}
# A tibble: 373 x 19
   date  change_cases change_fataliti… change_tests change_hospital…
   <chr>        <int>            <int>        <int>            <int>
 1 2020…           NA               NA            0                0
 2 2020…           NA               NA            0                0
 3 2020…           NA               NA            0                0
 4 2020…           NA               NA            0                0
 5 2020…           NA               NA            0                0
 6 2020…           NA               NA            0                0
 7 2020…           NA               NA            0                0
 8 2020…           NA               NA            0                0
 9 2020…           NA               NA            0                0
10 2020…           NA               NA            0                0
# … with 363 more rows, and 14 more variables: change_criticals <int>,
#   change_recoveries <int>, change_vaccinations <int>,
#   change_vaccines_distributed <int>, change_vaccinated <int>,
#   total_cases <int>, total_fatalities <int>, total_tests <int>,
#   total_hospitalizations <int>, total_criticals <int>,
#   total_recoveries <int>, total_vaccinations <int>,
#   total_vaccines_distributed <int>, total_vaccinated <int>
…
