Pangaea and R and open palaeo data
…
To download the data object(s) associated with a record in Pangaea, we use the pg_data() function, supplying it with a single DOI.

res <- pg_data(doi = recs$doi[2])       # doi = "10.1594/PANGAEA.857573"

Downloading 1 datasets from 10.1594/PANGAEA.857573

Processing 1 files

res
str(res[[1]], max = 1)

[[1]]
<Pangaea data> 10.1594/PANGAEA.857573
# A tibble: 560 × 4
   `Depth [m]` `Age [a AD]` `Age [ka BP]` `G. ruber d18O [per mil PDB]`
         <dbl>        <dbl>         <dbl>                         <dbl>
1       1.4000      -188.20       2.13820                         0.742
2       1.3975      -184.33       2.13433                         0.290
3       1.3950      -180.46       2.13046                         0.706
4       1.3925      -176.59       2.12659                         0.356
5       1.3900      -172.72       2.12272                         0.558
6       1.3875      -168.85       2.11885                         0.746
7       1.3850      -164.98       2.11498                         0.346
8       1.3825      -161.11       2.11111                         0.554
9       1.3800      -157.24       2.10724                         0.510
10      1.3775      -153.37       2.10337                         0.543
# ... with 550 more rows
…
In Pangaea, a DOI might refer to a collection of data objects, in which case the object returned by pg_data() would be a list with as many components as objects in the collection. In this instance there is but a single data object associated with the requested DOI, but for consistency it is returned in a list with a single component.

Rather than work with the pangaea object directly, for modelling or plotting it is, for the moment at least, going to be simpler if we extract out the data object, which is stored in the $data component. We’ll also want to tidy up those variable/column names

foram <- res[[1]]$data
names(foram) <- c("Depth", "Age_AD", "Age_kaBP", "d18O")
foram

# A tibble: 560 × 4
    Depth  Age_AD Age_kaBP  d18O
    <dbl>   <dbl>    <dbl> <dbl>
1  1.4000 -188.20  2.13820 0.742
2  1.3975 -184.33  2.13433 0.290
3  1.3950 -180.46  2.13046 0.706
4  1.3925 -176.59  2.12659 0.356
5  1.3900 -172.72  2.12272 0.558
6  1.3875 -168.85  2.11885 0.746
7  1.3850 -164.98  2.11498 0.346
8  1.3825 -161.11  2.11111 0.554
9  1.3800 -157.24  2.10724 0.510
10 1.3775 -153.37  2.10337 0.543
# ... with 550 more rows
…
