gratia 0.9.0
…
            I am pleased to announce the release of gratia 0.9.0. This release has been over a year in the making and provides many new features as well as a more consistent user experience. Unfortunately, I have had to make a lot of breaking changes; nothing too egregious, but most user-facing functions are affected. This release represents a solid base to move towards gratia version 1.0.0. Here, I describe what I broke as well as outline some of the major new features in the package.

Breaking changes

Several of the main user-facing functions return user data along side the variables created by those functions. For example, smooth_estimates() returns the values of the covariates at which a smooth is evaluated.

library("mgcv")
library("gratia")

df <- data_sim("eg1", n = 500, seed = 2)
m <- gam(y ~ s(x0) + s(x1) + s(x2) + s(x3), data = df, method = "REML")

smooth_estimates(m) # evaluate all smooths

# A tibble: 400 × 9
   .smooth .type .by   .estimate   .se       x0    x1    x2    x3
   <chr>   <chr> <chr>     <dbl> <dbl>    <dbl> <dbl> <dbl> <dbl>
 1 s(x0)   TPRS  <NA>     -1.01  0.322 0.000663    NA    NA    NA
 2 s(x0)   TPRS  <NA>     -0.955 0.299 0.0107      NA    NA    NA
 3 s(x0)   TPRS  <NA>     -0.902 0.277 0.0208      NA    NA    NA
 4 s(x0)   TPRS  <NA>     -0.848 0.257 0.0309      NA    NA    NA
 5 s(x0)   TPRS  <NA>     -0.794 0.239 0.0410      NA    NA    NA
 6 s(x0)   TPRS  <NA>     -0.741 0.224 0.0510      NA    NA    NA
 7 s(x0)   TPRS  <NA>     -0.687 0.210 0.0611      NA    NA    NA
 8 s(x0)   TPRS  <NA>     -0.633 0.199 0.0712      NA    NA    NA
 9 s(x0)   TPRS  <NA>     -0.580 0.190 0.0813      NA    NA    NA
10 s(x0)   TPRS  <NA>     -0.526 0.184 0.0913      NA    NA    NA
# ℹ 390 more rows

smooth_estimates() returns info about the smooth, what is’s label is, what type it is, plus info relating to whether it is a factor by smooth. It isn’t unreasonable to think that a user might also use covariates with names type, for example, which would immediately cause a problem if they fitted a model with a s(x, by = type) smooth. We’d see a clash between the type that smooth_estimates() wants to add to the return object and the variable the user used which also needs to included in the return object.

Now, I should have foreseen this when I set about building gratia, but I didn’t, and so we arrive at March 2024 and the Great Renaming.

As you can see above, the variables that gratia’s functions add to returned objects are now prefixed with a period: .smooth instead of smooth. I also took the opportunity to be more consistent and clear about what variables are through their naming. Hence, smooth_estimates() now returns a variable .estimate where previously I have est.

Some functions have changed more than others. derivatives(), for example, used to have a data variable that stored the covariate values at which the derivative of a smooth was computed. This wasn’t very flexible unfortunately, and it wouldn’t work by smooths as at some point we’d need to also store the by variable name and info and you can’t easily stack factors with different levels without merging them. So now derivatives() more closely follows the conventions of smooth_estimates()

derivatives(m)

# A tibble: 400 × 12
   .smooth .by   .fs   .derivative   .se .crit .lower_ci .upper_ci      x0    x1
   <chr>   <chr> <chr>       <dbl> <dbl> <dbl>     <dbl>     <dbl>   <dbl> <dbl>
 1 s(x0)   <NA>  <NA>         5.32  2.94  1.96  -0.441       11.1  6.63e-4    NA
 2 s(x0)   <NA>  <NA>         5.32  2.94  1.96  -0.437       11.1  1.07e-2    NA
 3 s(x0)   <NA>  <NA>         5.32  2.93  1.96  -0.413       11.1  2.08e-2    NA
 4 s(x0)   <NA>  <NA>         5.32  2.89  1.96  -0.338       11.0  3.09e-2    NA
 5 s(x0)   <NA>  <NA>         5.33  2.82  1.96  -0.196       10.8  4.10e-2    NA
 6 s(x0)   <NA>  <NA>         5.33  2.71  1.96   0.00753     10.6  5.10e-2    NA
 7 s(x0)   <NA>  <NA>         5.33  2.58  1.96   0.263       10.4  6.11e-2    NA
 8 s(x0)   <NA>  <NA>         5.32  2.43  1.96   0.552       10.1  7.12e-2    NA
 9 s(x0)   <NA>  <NA>         5.32  2.28  1.96   0.847        9.79 8.13e-2    NA
10 s(x0)   <NA>  <NA>         5.31  2.14  1.96   1.12         9.49 9.13e-2    NA
# ℹ 390 more rows
# ℹ 2 more variables: x2 <dbl>, x3 <dbl>
…
