Introducing gratia
…
Internally draw() uses the plot_grid() function from cowplot to draw multiple panels on the plot device, and to line up the individual plots.

There’s not an awful lot more you can do with this now, but the at least the plot is reasonably pretty. gratia includes tools for working with the underlying smooths represented in mod, and if you wanted to extract most of the data used to build the plot you’d use the evaluate_smooth() function.

evaluate_smooth(mod, "x1")

# A tibble: 100 x 5
   smooth fs_variable       x1   est    se
   <chr>  <fct>          <dbl> <dbl> <dbl>
 1 s(x1)  <NA>        0.000565 -2.75 0.294
 2 s(x1)  <NA>        0.0106   -2.72 0.277
 3 s(x1)  <NA>        0.0207   -2.68 0.261
 4 s(x1)  <NA>        0.0308   -2.64 0.245
 5 s(x1)  <NA>        0.0409   -2.60 0.230
 6 s(x1)  <NA>        0.0510   -2.56 0.217
 7 s(x1)  <NA>        0.0610   -2.52 0.204
 8 s(x1)  <NA>        0.0711   -2.48 0.193
 9 s(x1)  <NA>        0.0812   -2.44 0.183
10 s(x1)  <NA>        0.0913   -2.40 0.173
# ... with 90 more rows
…
